^D:\INHA\PROGRAMMING\VISUAL STUDIO POJECTS\Y\Y\1.CPP
D:\INHA\PROGRAMMING\VISUAL STUDIO POJECTS\Y\Y\DEBUG\VC120.PDB
D:\INHA\PROGRAMMING\VISUAL STUDIO POJECTS\Y\Y\DEBUG\VC120.IDB
D:\INHA\PROGRAMMING\VISUAL STUDIO POJECTS\Y\Y\DEBUG\1.OBJ
